Capítulo 21 Cómo cambiar el formato de datos | Introducción a la Ciencia de Datos
…
El código para recopilar los datos de fertilidad se ve así:

new_tidy_data <- gather(wide_data, year, fertility, `1960`:`2015`)

También podemos usar el pipe de esta manera:

new_tidy_data <- wide_data %>% gather(year, fertility, `1960`:`2015`)

Podemos ver que los datos se han convertido al formato tidy con columnas year y fertility:

head(new_tidy_data)
#> # A tibble: 6 x 3
#>   country     year  fertility
#>   <chr>       <chr>     <dbl>
#> 1 Germany     1960       2.41
#> 2 South Korea 1960       6.16
#> 3 Germany     1961       2.44
#> 4 South Korea 1961       5.99
#> 5 Germany     1962       2.47
#> # … with 1 more row
…
Primero, tengan en cuenta que los datos están en formato ancho. Además, observen que esta tabla incluye valores para dos variables, fertilidad y esperanza de vida, con el nombre (en inglés) de la columna codificando qué columna representa qué variable. No recomendamos codificar la información en los nombres de las columnas, pero, desafortunadamente, es algo bastante común. Usaremos nuestras habilidades de wrangling para extraer esta información y almacenarla de manera tidy.

Podemos comenzar el wrangling de datos con la función gather, pero ya no deberíamos usar el nombre de la columna year para la nueva columna, dado que también contiene el tipo de variable. La nombraremos key, el valor predeterminado, por ahora:

dat <- raw_dat %>% gather(key, value, -country)
head(dat)
#> # A tibble: 6 x 3
#>   country     key                  value
#>   <chr>       <chr>                <dbl>
#> 1 Germany     1960_fertility        2.41
#> 2 South Korea 1960_fertility        6.16
#> 3 Germany     1960_life_expectancy 69.3 
#> 4 South Korea 1960_life_expectancy 53.0 
#> 5 Germany     1961_fertility        2.44
#> # … with 1 more row
…
dat$key[1:5]
#> [1] "1960_fertility"       "1960_fertility"       "1960_life_expectancy"
#> [4] "1960_life_expectancy" "1961_fertility"

Codificar múltiples variables en el nombre de una columna es un problema tan común que el paquete readr incluye una función para separar estas columnas en dos o más. Aparte de los datos, la función separate toma tres argumentos: el nombre de la columna que se separará, los nombres que se utilizarán para las nuevas columnas y el carácter que separa las variables. Entonces, un primer intento de hacer esto es:

dat %>% separate(key, c("year", "variable_name"), "_")

separate supone por defecto que_ es el separador y, por eso, no tenemos que incluirlo en el código:

dat %>% separate(key, c("year", "variable_name"))
#> Warning: Expected 2 pieces. Additional pieces discarded in 112 rows [3,
#> 4, 7, 8, 11, 12, 15, 16, 19, 20, 23, 24, 27, 28, 31, 32, 35, 36, 39,
#> 40, ...].
#> # A tibble: 224 x 4
#>   country     year  variable_name value
#>   <chr>       <chr> <chr>         <dbl>
#> 1 Germany     1960  fertility      2.41
#> 2 South Korea 1960  fertility      6.16
#> 3 Germany     1960  life          69.3 
#> 4 South Korea 1960  life          53.0 
#> 5 Germany     1961  fertility      2.44
#> # … with 219 more rows

La función separa los valores, pero nos encontramos con un nuevo problema. Recibimos la advertencia Too many values at 112 locations: y la variable life_expectancy se corta a life. Esto es porque el _ se usa para separar life y expectancy, no solo el año y el nombre de la variable. Podríamos añadir una tercera columna para guardar esto y dejar que la función separate sepa cual columna llenar con los valores faltantes, NA, cuando no hay un tercer valor. Aquí le decimos que llene la columna de la derecha:

var_names <- c("year", "first_variable_name", "second_variable_name")
dat %>% separate(key, var_names, fill = "right")
#> # A tibble: 224 x 5
#>   country     year  first_variable_name second_variable_name value
#>   <chr>       <chr> <chr>               <chr>                <dbl>
#> 1 Germany     1960  fertility           <NA>                  2.41
#> 2 South Korea 1960  fertility           <NA>                  6.16
#> 3 Germany     1960  life                expectancy           69.3 
#> 4 South Korea 1960  life                expectancy           53.0 
#> 5 Germany     1961  fertility           <NA>                  2.44
#> # … with 219 more rows

Sin embargo, si leemos el archivo de ayuda de separate, encontramos que un mejor enfoque es fusionar las dos últimas variables cuando hay una separación adicional:

dat %>% separate(key, c("year", "variable_name"), extra = "merge")
#> # A tibble: 224 x 4
#>   country     year  variable_name   value
#>   <chr>       <chr> <chr>           <dbl>
#> 1 Germany     1960  fertility        2.41
#> 2 South Korea 1960  fertility        6.16
#> 3 Germany     1960  life_expectancy 69.3 
#> 4 South Korea 1960  life_expectancy 53.0 
#> 5 Germany     1961  fertility        2.44
#> # … with 219 more rows

Esto logra la separación que queríamos. Sin embargo, aún no hemos terminado. Necesitamos crear una columna para cada variable. Como aprendimos, la función spread hace eso:

dat %>%
separate(key, c("year", "variable_name"), extra = "merge") %>%
spread(variable_name, value)
#> # A tibble: 112 x 4
#>   country year  fertility life_expectancy
#>   <chr>   <chr>     <dbl>           <dbl>
#> 1 Germany 1960       2.41            69.3
#> 2 Germany 1961       2.44            69.8
#> 3 Germany 1962       2.47            70.0
#> 4 Germany 1963       2.49            70.1
#> 5 Germany 1964       2.49            70.7
#> # … with 107 more rows

Los datos ahora están en formato tidy con una fila para cada observación con tres variables: año, fertilidad y esperanza de vida.

21.4 unite

A veces es útil hacer el inverso de separate, es decir, unir dos columnas en una. Para demostrar cómo usar unite, mostramos un código que, aunque no es el acercamiento óptimo, sirve como ilustración. Supongamos que no supiéramos sobre extra y usáramos este comando para separar:

dat %>%
separate(key, var_names, fill = "right")
#> # A tibble: 224 x 5
#>   country     year  first_variable_name second_variable_name value
#>   <chr>       <chr> <chr>               <chr>                <dbl>
#> 1 Germany     1960  fertility           <NA>                  2.41
#> 2 South Korea 1960  fertility           <NA>                  6.16
#> 3 Germany     1960  life                expectancy           69.3 
#> 4 South Korea 1960  life                expectancy           53.0 
#> 5 Germany     1961  fertility           <NA>                  2.44
#> # … with 219 more rows

Podemos lograr el mismo resultado final uniendo las segunda y tercera columnas, luego esparciendo las columnas usando spread y renombrando fertility_NA a fertility:

dat %>%
separate(key, var_names, fill = "right") %>%
unite(variable_name, first_variable_name, second_variable_name) %>%
spread(variable_name, value) %>%
rename(fertility = fertility_NA)
#> # A tibble: 112 x 4
#>   country year  fertility life_expectancy
#>   <chr>   <chr>     <dbl>           <dbl>
#> 1 Germany 1960       2.41            69.3
#> 2 Germany 1961       2.44            69.8
#> 3 Germany 1962       2.47            70.0
#> 4 Germany 1963       2.49            70.1
#> 5 Germany 1964       2.49            70.7
#> # … with 107 more rows
…
