Capítulo 9 Visualización de datos en la práctica | Introducción a la Ciencia de Datos
…
Los periodistas y cabilderos cuentan historias dramáticas. Ese es su trabajo. Cuentan historias sobre eventos extraordinarios y personas inusuales. Las historias dramáticas se acumulan en las mentes de las personas en una visión del mundo demasiado dramática y con fuertes sentimientos de estrés negativo: “¡El mundo está empeorando!”, “¡Somos nosotros contra ellos!”, “¡Las demás personas son extrañas!”, " ¡La población sigue creciendo! " y “¡A nadie le importa!”

Hans Rosling se dedicó, en su propia manera dramática, a educar al público sobre tendencias basadas en datos utilizando visualizaciones de datos eficaces. Esta sección se basa en dos charlas que ejemplifican esta perspectiva educativa: New Insights on Poverty31 y The Best Stats You’ve Ever Seen32. Específicamente, en esta sección usamos datos para intentar responder a las siguientes dos preguntas:

¿Es una caracterización justa del mundo actual decir que está dividido en naciones ricas occidentales y el mundo en desarrollo compuesto por África, Asia y América Latina?

¿Ha empeorado la desigualdad de ingresos en todos los países durante los últimos 40 años?

Para responder a estas preguntas, utilizaremos el set de datos gapminder proveído por dslabs. Este set de datos se creó utilizando varias hojas de cálculo disponibles de la Fundación Gapminder. Pueden acceder a la tabla de esta manera:

library(tidyverse)
library(dslabs)
data(gapminder)
gapminder %>% as_tibble()
#> # A tibble: 10,545 x 9
#>   country  year infant_mortality life_expectancy fertility population
#>   <fct>   <int>            <dbl>           <dbl>     <dbl>      <dbl>
#> 1 Albania  1960            115.             62.9      6.19    1636054
#> 2 Algeria  1960            148.             47.5      7.65   11124892
#> 3 Angola   1960            208              36.0      7.32    5270844
#> 4 Antigu…  1960             NA              63.0      4.43      54681
#> 5 Argent…  1960             59.9            65.4      3.11   20619075
#> # … with 10,540 more rows, and 3 more variables: gdp <dbl>,
#> #   continent <fct>, region <fct>
…
