Capítulo 33 Grandes conjuntos de datos | Introducción a la Ciencia de Datos
…
33.7.1 Datos de lente de película

Los datos de Netflix no están disponibles públicamente, pero el laboratorio de investigación de GroupLens116 generó su propia base de datos con más de 20 millones de calificaciones para más de 27,000 películas de más de 138,000 usuarios. Ponemos a disposición un pequeño subconjunto de estos datos a través del paquete dslabs:

library(tidyverse)
library(dslabs)
data("movielens")

Podemos ver que esta tabla está en formato ordenado con miles de filas:

movielens %>% as_tibble()
#> # A tibble: 100,004 x 7
#>   movieId title              year genres         userId rating timestamp
#>     <int> <chr>             <int> <fct>           <int>  <dbl>     <int>
#> 1      31 Dangerous Minds    1995 Drama               1    2.5    1.26e9
#> 2    1029 Dumbo              1941 Animation|Chi…      1    3      1.26e9
#> 3    1061 Sleepers           1996 Thriller            1    3      1.26e9
#> 4    1129 Escape from New …  1981 Action|Advent…      1    2      1.26e9
#> 5    1172 Cinema Paradiso …  1989 Drama               1    4      1.26e9
#> # … with 99,999 more rows
…
