Capítulo 19 La asociación no es causalidad | Introducción a la Ciencia de Datos
…
La primera columna denota grupo. Creamos grupos y para cada uno generamos un par de vectores independientes, \(X\) y \(Y\), con 25 observaciones cada una, almacenadas en la segunda y tercera columnas. Debido a que construimos la simulación, sabemos que \(X\) y \(Y\) no están correlacionados

A continuación, calculamos la correlación entre X y Y para cada grupo y mira el máximo:

res <- sim_data %>%
group_by(group) %>%
summarize(r = cor(x, y)) %>%
arrange(desc(r))
res
#> # A tibble: 1,000,000 x 2
#>    group     r
#>    <int> <dbl>
#> 1 992040 0.790
#> 2 805031 0.773
#> 3 231086 0.767
#> 4 529954 0.765
#> 5 178906 0.761
#> # … with 999,995 more rows
…
