Capítulo 18 Modelos lineales | Introducción a la ciencia de datos
…
Recuerden que la pendiente de regresión para predecir carreras con BB era 0.7. Una vez que estratificamos por HR, estas pendientes se reducen sustancialmente:

dat %>%
  group_by(HR_strata) %>%
  summarize(slope = get_slope(BB_per_game, R_per_game))
#> # A tibble: 9 x 2
#>   HR_strata slope
#>       <dbl> <dbl>
#> 1       0.4 0.734
#> 2       0.5 0.566
#> 3       0.6 0.412
#> 4       0.7 0.285
#> 5       0.8 0.365
#> # … with 4 more rows
…
En este caso, las pendientes no cambian mucho del valor original:

dat %>% group_by(BB_strata) %>%
  summarize(slope = get_slope(HR_per_game, R_per_game))
#> # A tibble: 12 x 2
#>   BB_strata slope
#>       <dbl> <dbl>
#> 1       2.8  1.52
#> 2       2.9  1.57
#> 3       3    1.52
#> 4       3.1  1.49
#> 5       3.2  1.58
#> # … with 7 more rows
…
no obtenemos el resultado que queremos. La función lm ignora el group_by ya que lm no es parte del tidyverse y no sabe cómo manejar el resultado de un tibble agrupado.

Las funciones de tidyverse saben cómo interpretar los tibbles agrupados. Además, para facilitar la creación de una secuencia de comandos con el pipe %>%, las funciones de tidyverse consistentemente devuelven data frames, ya que esto asegura que el resultado de una función sea aceptado como la entrada de otra. Pero la mayoría de las funciones de R no reconocen los tibbles agrupados ni devuelven data frames. La función lm es un ejemplo. Sin embargo, podemos escribir una función que usa lm para calcular y devolver los resúmenes relevantes en un data frame y entonces usar summarize:

get_slope <- function(x, y){
  fit <- lm(y ~ x)
  tibble(slope = fit$coefficients[2], 
         se = summary(fit)$coefficient[2,2])
}
dat %>%  
  group_by(HR) %>%
  summarize(get_slope(BB, R))
#> # A tibble: 9 x 3
#>      HR slope     se
#>   <dbl> <dbl>  <dbl>
#> 1   0.4 0.734 0.208 
#> 2   0.5 0.566 0.110 
#> 3   0.6 0.412 0.0974
#> 4   0.7 0.285 0.0705
#> 5   0.8 0.365 0.0653
#> # … with 4 more rows

Aquí un ejemplo que devuelve estimadores para ambos parametros:

get_lse <- function(x, y){
  fit <- lm(y ~ x)
  data.frame(term = names(fit$coefficients),
             slope = fit$coefficients, 
             se = summary(fit)$coefficient[,2])
}

dat %>%  
  group_by(HR) %>%
  summarize(get_lse(BB, R))
#> # A tibble: 18 x 4
#> # Groups:   HR [9]
#>      HR term        slope    se
#>   <dbl> <chr>       <dbl> <dbl>
#> 1   0.4 (Intercept) 1.36  0.631
#> 2   0.4 x           0.734 0.208
#> 3   0.5 (Intercept) 2.01  0.344
#> 4   0.5 x           0.566 0.110
#> 5   0.6 (Intercept) 2.53  0.305
#> # … with 13 more rows
…
Podemos ver los coeficientes usando tidy:

coefs <- tidy(fit, conf.int = TRUE)

coefs
#> # A tibble: 6 x 7
#>   term        estimate std.error statistic   p.value conf.low conf.high
#>   <chr>          <dbl>     <dbl>     <dbl>     <dbl>    <dbl>     <dbl>
#> 1 (Intercept)   -2.77     0.0862     -32.1 4.76e-157   -2.94     -2.60 
#> 2 BB             0.371    0.0117      31.6 1.87e-153    0.348     0.394
#> 3 singles        0.519    0.0127      40.8 8.67e-217    0.494     0.544
#> 4 doubles        0.771    0.0226      34.1 8.44e-171    0.727     0.816
#> 5 triples        1.24     0.0768      16.1 2.12e- 52    1.09      1.39 
#> # … with 1 more row
…
