Capítulo 26 Minería de textos | Introducción a la ciencia de datos
…
poem <- c("Roses are red,", "Violets are blue,",
          "Sugar is sweet,", "And so are you.")
example <- tibble(line = c(1, 2, 3, 4),
                  text = poem)
example
#> # A tibble: 4 x 2
#>    line text             
#>   <dbl> <chr>            
#> 1     1 Roses are red,   
#> 2     2 Violets are blue,
#> 3     3 Sugar is sweet,  
#> 4     4 And so are you.
example %>% unnest_tokens(word, text)
#> # A tibble: 13 x 2
#>    line word   
#>   <dbl> <chr>  
#> 1     1 roses  
#> 2     1 are    
#> 3     1 red    
#> 4     2 violets
#> 5     2 are    
#> # … with 8 more rows
…
Ya estamos listos para extraer las palabras de todos nuestros tuits.

tweet_words <- campaign_tweets %>%
  mutate(text = str_replace_all(text, links, "")) %>%
  unnest_tokens(word, text, token = "tweets")

Y ahora podemos responder a preguntas como “¿cuáles son las palabras más utilizadas?”:

tweet_words %>%
  count(word) %>%
  arrange(desc(n)) %>%
  slice(1:10)
#> # A tibble: 10 x 2
#>   word      n
#>   <chr> <int>
#> 1 the    2329
#> 2 to     1410
#> 3 and    1239
#> 4 in     1185
#> 5 i      1143
#> # … with 5 more rows

No es sorprendente que estas sean las palabras principales. Las palabras principales no son informativas. El paquete tidytext tiene una base de datos de estas palabras de uso común, denominadas palabras stop, en la minería de textos:

stop_words
#> # A tibble: 1,149 x 2
#>   word  lexicon
#>   <chr> <chr>  
#> 1 a     SMART  
#> 2 a's   SMART  
#> 3 able  SMART  
#> 4 about SMART  
#> 5 above SMART  
#> # … with 1,144 more rows
Si filtramos las filas que representan las palabras stop con filter(!word %in% stop_words$word):

tweet_words <- campaign_tweets %>%
  mutate(text = str_replace_all(text, links, "")) %>%
  unnest_tokens(word, text, token = "tweets") %>%
  filter(!word %in% stop_words$word )

terminamos con un conjunto mucho más informativo de las 10 palabras más tuiteadas:

tweet_words %>%
  count(word) %>%
  top_n(10, n) %>%
  mutate(word = reorder(word, n)) %>%
  arrange(desc(n))
#> # A tibble: 10 x 2
#>   word                       n
#>   <fct>                  <int>
#> 1 #trump2016               414
#> 2 hillary                  405
#> 3 people                   303
#> 4 #makeamericagreatagain   294
#> 5 america                  254
#> # … with 5 more rows
…
Ahora que tenemos las palabras en una tabla e información sobre qué dispositivo se usó para componer el tuit, podemos comenzar a explorar qué palabras son más comunes al comparar Android con iPhone.

Para cada palabra, queremos saber si es más probable que provenga de un tuit de Android o un tuit de iPhone. En la Sección 15.10, discutimos el riesgo relativo (odds ratio en inglés) como un resumen estadístico útil para cuantificar estas diferencias. Para cada dispositivo y una palabra dada, llamémosla y, calculamos el riesgo relativo. Aquí tendremos muchas proporciones que son 0, así que usamos la corrección 0.5 descrita en la Sección 15.10.

android_iphone_or <- tweet_words %>%
  count(word, source) %>%
  pivot_wider(names_from = "source", values_from = "n", values_fill = 0) %>%
  mutate(or = (Android + 0.5) / (sum(Android) - Android + 0.5) / 
           ( (iPhone + 0.5) / (sum(iPhone) - iPhone + 0.5)))

Aquí están los riesgos relativos más altos para Android:

android_iphone_or %>% arrange(desc(or))
#> # A tibble: 5,914 x 4
#>   word      Android iPhone    or
#>   <chr>       <int>  <int> <dbl>
#> 1 poor           13      0  23.1
#> 2 poorly         12      0  21.4
#> 3 turnberry      11      0  19.7
#> 4 @cbsnews       10      0  18.0
#> 5 angry          10      0  18.0
#> # … with 5,909 more rows

y los más altos para iPhone:

android_iphone_or %>% arrange(or)
#> # A tibble: 5,914 x 4
#>   word                   Android iPhone      or
#>   <chr>                    <int>  <int>   <dbl>
#> 1 #makeamericagreatagain       0    294 0.00142
#> 2 #americafirst                0     71 0.00595
#> 3 #draintheswamp               0     63 0.00670
#> 4 #trump2016                   3    411 0.00706
#> 5 #votetrump                   0     56 0.00753
#> # … with 5,909 more rows

Dado que varias de estas palabras son palabras generales de baja frecuencia, podemos imponer un filtro basado en la frecuencia total así:

android_iphone_or %>% filter(Android+iPhone > 100) %>%
  arrange(desc(or))
#> # A tibble: 30 x 4
#>   word        Android iPhone    or
#>   <chr>         <int>  <int> <dbl>
#> 1 @cnn             90     17  4.44
#> 2 bad             104     26  3.39
#> 3 crooked         156     49  2.72
#> 4 interviewed      76     25  2.57
#> 5 media            76     25  2.57
#> # … with 25 more rows

android_iphone_or %>% filter(Android+iPhone > 100) %>%
  arrange(or)
#> # A tibble: 30 x 4
#>   word                   Android iPhone      or
#>   <chr>                    <int>  <int>   <dbl>
#> 1 #makeamericagreatagain       0    294 0.00142
#> 2 #trump2016                   3    411 0.00706
#> 3 join                         1    157 0.00805
#> 4 tomorrow                    24     99 0.209  
#> 5 vote                        46     67 0.588  
#> # … with 25 more rows
…
library(tidytext)
library(textdata)

El léxico bing divide las palabras en sentimientos positive y negative. Podemos ver esto usando la función get_sentiments de tidytext:

get_sentiments("bing")

El léxico AFINN asigna una puntuación entre -5 y 5, con -5 el más negativo y 5 el más positivo. Tengan en cuenta que este léxico debe descargarse la primera vez que llamen a la función get_sentiment:

get_sentiments("afinn")

Los léxicos loughran y nrc ofrecen varios sentimientos diferentes. Noten que estos también deben descargarse la primera vez que los usen.

get_sentiments("loughran") %>% count(sentiment)
#> # A tibble: 6 x 2
#>   sentiment        n
#>   <chr>        <int>
#> 1 constraining   184
#> 2 litigious      904
#> 3 negative      2355
#> 4 positive       354
#> 5 superfluous     56
#> # … with 1 more row

get_sentiments("nrc") %>% count(sentiment)
#> # A tibble: 10 x 2
#>   sentiment        n
#>   <chr>        <int>
#> 1 anger         1247
#> 2 anticipation   839
#> 3 disgust       1058
#> 4 fear          1476
#> 5 joy            689
#> # … with 5 more rows
…
Ahora estamos listos para realizar un análisis cuantitativo comparando los sentimientos de los tuits publicados desde cada dispositivo. Podríamos realizar un análisis tuit por tuit, asignando un sentimiento a cada tuit. Sin embargo, esto sería un desafío ya que cada tuit tendrá varios sentimientos adjuntos, uno para cada palabra que aparezca en el léxico. Con fines ilustrativos, realizaremos un análisis mucho más sencillo: contaremos y compararemos las frecuencias de cada sentimiento que aparece en cada dispositivo.

sentiment_counts <- tweet_words %>%
  left_join(nrc, by = "word") %>%
  count(source, sentiment) %>%
  pivot_wider(names_from = "source", values_from = "n") %>%
  mutate(sentiment = replace_na(sentiment, replace = "none"))
sentiment_counts
#> # A tibble: 11 x 3
#>   sentiment    Android iPhone
#>   <chr>          <int>  <int>
#> 1 anger            958    528
#> 2 anticipation     910    715
#> 3 disgust          638    322
#> 4 fear             795    486
#> 5 joy              688    535
#> # … with 6 more rows

Para cada sentimiento, podemos calcular las probabilidades de estar en el dispositivo: proporción de palabras con sentimiento versus proporción de palabras sin. Entonces calculamos el riesgo relativo comparando los dos dispositivos.

sentiment_counts %>%
  mutate(Android = Android/ (sum(Android) - Android) ,
         iPhone = iPhone/ (sum(iPhone) - iPhone),
         or = Android/iPhone) %>%
  arrange(desc(or))
#> # A tibble: 11 x 4
#>   sentiment Android iPhone    or
#>   <chr>       <dbl>  <dbl> <dbl>
#> 1 disgust    0.0299 0.0186  1.61
#> 2 anger      0.0456 0.0309  1.47
#> 3 negative   0.0807 0.0556  1.45
#> 4 sadness    0.0424 0.0301  1.41
#> 5 fear       0.0375 0.0284  1.32
#> # … with 6 more rows

Sí vemos algunas diferencias y el orden es particularmente interesante: ¡los tres sentimientos más grandes son el asco, la ira y lo negativo! ¿Pero estas diferencias son solo por casualidad? ¿Cómo se compara esto si solo estamos asignando sentimientos al azar? A fin de responder a esta pregunta, para cada sentimiento podemos calcular un riesgo relativo y un intervalo de confianza, como se definen en la Sección 15.10. Agregaremos los dos valores que necesitamos para formar una tabla de dos por dos y el riesgo relativo:

library(broom)
log_or <- sentiment_counts %>%
  mutate(log_or = log((Android/ (sum(Android) - Android))/
                        (iPhone/ (sum(iPhone) - iPhone))),
         se = sqrt(1/Android + 1/(sum(Android) - Android) +
                     1/iPhone + 1/(sum(iPhone) - iPhone)),
         conf.low = log_or - qnorm(0.975)*se,
         conf.high = log_or + qnorm(0.975)*se) %>%
  arrange(desc(log_or))

log_or
#> # A tibble: 11 x 7
#>   sentiment Android iPhone log_or     se conf.low conf.high
#>   <chr>       <int>  <int>  <dbl>  <dbl>    <dbl>     <dbl>
#> 1 disgust       638    322  0.474 0.0691    0.338     0.609
#> 2 anger         958    528  0.389 0.0552    0.281     0.497
#> 3 negative     1641    929  0.371 0.0424    0.288     0.454
#> 4 sadness       894    515  0.342 0.0563    0.232     0.452
#> 5 fear          795    486  0.280 0.0585    0.165     0.394
#> # … with 6 more rows
…
Vemos que el disgusto, la ira, los sentimientos negativos, la tristeza y el miedo están asociados con el Android de una manera que es difícil de explicar solo por casualidad. Las palabras no asociadas con un sentimiento estaban fuertemente asociadas con el iPhone, que está de acuerdo con la afirmación original sobre los tuits hiperbólicos.

Si estamos interesados en explorar qué palabras específicas están impulsando estas diferencias, podemos referirnos a nuestro objeto android_iphone_or:

android_iphone_or %>% inner_join(nrc) %>%
  filter(sentiment == "disgust" & Android + iPhone > 10) %>%
  arrange(desc(or))
#> Joining, by = "word"
#> # A tibble: 20 x 5
#>   word     Android iPhone    or sentiment
#>   <chr>      <int>  <int> <dbl> <chr>    
#> 1 mess          13      2  4.62 disgust  
#> 2 finally       12      2  4.28 disgust  
#> 3 unfair        12      2  4.28 disgust  
#> 4 bad          104     26  3.39 disgust  
#> 5 terrible      31      8  3.17 disgust  
#> # … with 15 more rows
…
