…
Los datos no parecen estar distribuidos normalmente y el error estándar parece ser mayor que 0.007. La teoría no está funcionando del todo aquí.

2.1.2 Sesgo de encuestador

Observe que varios encuestadores están involucrados y algunos toman varias encuestas por semana:

polls %>% group_by(pollster) %>% summarize(n())
#> # A tibble: 15 x 2
#>   pollster                                                   `n()`
#>   <fct>                                                      <int>
#> 1 ABC News/Washington Post                                       7
#> 2 Angus Reid Global                                              1
#> 3 CBS News/New York Times                                        2
#> 4 Fox News/Anderson Robbins Research/Shaw & Company Research     2
#> 5 IBD/TIPP                                                       8
#> # … with 10 more rows
…
results <- polls_us_election_2016 %>%
filter(state!="U.S." &
!str_detect(state, "CD") &
enddate >="2016-10-31" &
(grade %in% c("A+","A","A-","B+") | is.na(grade))) %>%
mutate(spread = rawpoll_clinton/100 - rawpoll_trump/100) %>%
group_by(state) %>%
summarize(avg = mean(spread), sd = sd(spread), n = n()) %>%
mutate(state = as.character(state))

Aquí están las cinco razas más cercanas según las encuestas:

results %>% arrange(abs(avg))
#> # A tibble: 47 x 4
#>   state               avg     sd     n
#>   <chr>             <dbl>  <dbl> <int>
#> 1 Florida         0.00356 0.0163     7
#> 2 North Carolina -0.00730 0.0306     9
#> 3 Ohio           -0.0104  0.0252     6
#> 4 Nevada          0.0169  0.0441     7
#> 5 Iowa           -0.0197  0.0437     3
#> # … with 42 more rows
…
results_us_election_2016 %>% filter(!state %in% results$state) %>%
pull(state)
#> [1] "Rhode Island"         "Alaska"               "Wyoming"             
#> [4] "District of Columbia"

No se realizaron encuestas en DC, Rhode Island, Alaska y Wyoming porque los demócratas seguramente ganarán en los primeros dos y los republicanos en los últimos dos.

Debido a que no podemos estimar la desviación estándar para los estados con una sola encuesta, la calcularemos como la mediana de las desviaciones estándar estimadas para los estados con más de una encuesta:

results <- results %>%
mutate(sd = ifelse(is.na(sd), median(results$sd, na.rm = TRUE), sd))

Para hacer argumentos probabilísticos, utilizaremos una simulación de Monte Carlo. Para cada estado, aplicamos el enfoque bayesiano para generar un día de elecciones \(d\). Podríamos construir los antecedentes de cada estado con base en la historia reciente. Sin embargo, para simplificar, asignamos un estado previo a cada estado que asume que no sabemos nada sobre lo que sucederá. Dado que de un año electoral a otro, los resultados de un estado específico no cambian tanto, asignaremos una desviación estándar del 2% o \(\tau=0.02\). Por ahora, asumiremos, incorrectamente, que los resultados de la encuesta de cada estado son independientes. El código para el cálculo bayesiano bajo estos supuestos se ve así:

#> # A tibble: 47 x 12
#>   state     avg      sd     n electoral_votes clinton trump others
#>   <chr>   <dbl>   <dbl> <int>           <int>   <dbl> <dbl>  <dbl>
#> 1 Alab… -0.149  2.53e-2     3               9    34.4  62.1    3.6
#> 2 Ariz… -0.0326 2.70e-2     9              11    45.1  48.7    6.2
#> 3 Arka… -0.151  9.90e-4     2               6    33.7  60.6    5.8
#> 4 Cali…  0.260  3.87e-2     5              55    61.7  31.6    6.7
#> 5 Colo…  0.0452 2.95e-2     7               9    48.2  43.3    8.6
#> # … with 42 more rows, and 4 more variables: sigma <dbl>, B <dbl>,
#> #   posterior_mean <dbl>, posterior_se <dbl>
…
