Capítulo 18 Modelos lineales | Introducción a la Ciencia de Datos
…
Recuerde que la pendiente de regresión para predecir carreras con BB fue 0.7. Una vez que estratificamos por HR, estas pendientes se reducen sustancialmente:

dat %>%
group_by(HR_strata) %>%
summarize(slope = get_slope(BB_per_game, R_per_game))
#> # A tibble: 9 x 2
#>   HR_strata slope
#>       <dbl> <dbl>
#> 1       0.4 0.734
#> 2       0.5 0.566
#> 3       0.6 0.412
#> 4       0.7 0.285
#> 5       0.8 0.365
#> # … with 4 more rows
…
En este caso, las pendientes no cambian mucho del original:

dat %>% group_by(BB_strata) %>%
summarize(slope = get_slope(HR_per_game, R_per_game))
#> # A tibble: 12 x 2
#>   BB_strata slope
#>       <dbl> <dbl>
#> 1       2.8  1.52
#> 2       2.9  1.57
#> 3       3    1.52
#> 4       3.1  1.49
#> 5       3.2  1.58
#> # … with 7 more rows
…
no obtenemos el resultado que queremos. los lm la función ignora el group_by. Esto se espera porque lm no es parte del tidyverse y no sabe cómo manejar el resultado de un tibble agrupado.

Las funciones tidyverse saben cómo interpretar los tibbles agrupados. Además, para facilitar la secuencia de comandos a través de la tubería %>%, las funciones tidyverse devuelven constantemente marcos de datos, ya que esto asegura que la salida de una función sea aceptada como la entrada de otra.
Pero la mayoría de las funciones R no reconocen los tibbles agrupados ni devuelven marcos de datos. los lm la función es un ejemplo. los do funciones sirve como un puente entre las funciones R, como lm y el tidyverse. los do la función comprende tibbles agrupados y siempre devuelve un marco de datos.

Entonces, intentemos usar el do función para ajustar una línea de regresión a cada estrato de recursos humanos:

dat %>%
group_by(HR) %>%
do(fit = lm(R ~ BB, data = .))
#> Source: local data frame [9 x 2]
#> Groups: <by row>
#> 
#> # A tibble: 9 x 2
#>      HR fit   
#> * <dbl> <list>
#> 1   0.4 <lm>  
#> 2   0.5 <lm>  
#> 3   0.6 <lm>  
#> 4   0.7 <lm>  
#> 5   0.8 <lm>  
#> # … with 4 more rows
…
Para construir un marco de datos útil, la salida de la función también debe ser un marco de datos. Podríamos construir una función que devuelva solo lo que queremos en forma de un marco de datos:

get_slope <- function(data){
fit <- lm(R ~ BB, data = data)
data.frame(slope = fit$coefficients[2],
se = summary(fit)$coefficient[2,2])
}

Y luego usar do sin nombrar la salida, ya que ya estamos obteniendo un marco de datos:

dat %>%
group_by(HR) %>%
do(get_slope(.))
#> # A tibble: 9 x 3
#> # Groups:   HR [9]
#>      HR slope     se
#>   <dbl> <dbl>  <dbl>
#> 1   0.4 0.734 0.208 
#> 2   0.5 0.566 0.110 
#> 3   0.6 0.412 0.0974
#> 4   0.7 0.285 0.0705
#> 5   0.8 0.365 0.0653
#> # … with 4 more rows

Si nombramos la salida, obtenemos algo que no queremos, una columna que contiene marcos de datos:

dat %>%
group_by(HR) %>%
do(slope = get_slope(.))
#> Source: local data frame [9 x 2]
#> Groups: <by row>
#> 
#> # A tibble: 9 x 2
#>      HR slope           
#> * <dbl> <list>          
#> 1   0.4 <df[,2] [1 × 2]>
#> 2   0.5 <df[,2] [1 × 2]>
#> 3   0.6 <df[,2] [1 × 2]>
#> 4   0.7 <df[,2] [1 × 2]>
#> 5   0.8 <df[,2] [1 × 2]>
#> # … with 4 more rows

Esto no es muy útil, así que cubramos una última característica de do. Si el marco de datos que se devuelve tiene más de una fila, se concatenarán adecuadamente. Aquí hay un ejemplo en el que devolvemos ambos parámetros estimados:

get_lse <- function(data){
fit <- lm(R ~ BB, data = data)
data.frame(term = names(fit$coefficients),
slope = fit$coefficients,
se = summary(fit)$coefficient[,2])
}

dat %>%
group_by(HR) %>%
do(get_lse(.))
#> # A tibble: 18 x 4
#> # Groups:   HR [9]
#>      HR term        slope    se
#>   <dbl> <fct>       <dbl> <dbl>
#> 1   0.4 (Intercept) 1.36  0.631
#> 2   0.4 BB          0.734 0.208
#> 3   0.5 (Intercept) 2.01  0.344
#> 4   0.5 BB          0.566 0.110
#> 5   0.6 (Intercept) 2.53  0.305
#> # … with 13 more rows
…
Podemos ver los coeficientes usando tidy:

coefs <- tidy(fit, conf.int = TRUE)

coefs
#> # A tibble: 6 x 7
#>   term        estimate std.error statistic   p.value conf.low conf.high
#>   <chr>          <dbl>     <dbl>     <dbl>     <dbl>    <dbl>     <dbl>
#> 1 (Intercept)   -2.77     0.0862     -32.1 4.76e-157   -2.94     -2.60 
#> 2 BB             0.371    0.0117      31.6 1.87e-153    0.348     0.394
#> 3 singles        0.519    0.0127      40.8 8.67e-217    0.494     0.544
#> 4 doubles        0.771    0.0226      34.1 8.44e-171    0.727     0.816
#> 5 triples        1.24     0.0768      16.1 2.12e- 52    1.09      1.39 
#> # … with 1 more row
…
