Capítulo 24 Procesamiento de cadenas | Introducción a la ciencia de datos
…
De ahí podemos usar mutate_all para aplicar esta operación a cada columna, ya que no afectará a las columnas sin comas.

Resulta que esta operación es tan común que readr incluye la función parse_number específicamente para eliminar caracteres no numéricos antes de forzar una conversión:

test_2 <- parse_number(murders_raw$population)
identical(test_1, test_2)
#> [1] TRUE

Entonces podemos obtener nuestra tabla deseada usando:

murders_new <- murders_raw %>% mutate_at(2:3, parse_number)
head(murders_new)
#> # A tibble: 6 x 4
#>   state      population total murder_rate
#>   <chr>           <dbl> <dbl>       <dbl>
#> 1 Alabama       4853875   348         7.2
#> 2 Alaska         737709    59         8  
#> 3 Arizona       6817565   309         4.5
#> 4 Arkansas      2977853   181         6.1
#> 5 California   38993940  1861         4.8
#> # … with 1 more row
…
Sin embargo, debido a que esta es una tarea tan común, purrr provee un atajo. Si el segundo argumento recibe un número entero en lugar de una función, supondrá que queremos esa entrada. Entonces, el código anterior se puede escribir de manera más eficiente así:

map(x, 1)

Para forzar map a devolver un vector de caracteres en lugar de una lista, podemos usar map_chr. Asimismo, map_int devuelve enteros. Entonces, para crear nuestro data frame, podemos usar:

dat <- tibble(map_chr(x, 1),
              map_chr(x, 2),
              map_chr(x, 3),
              map_chr(x, 4),
              map_chr(x, 5)) %>%
  mutate_all(parse_guess) %>%
  setNames(col_names)
dat %>% head
#> # A tibble: 6 x 5
#>   state      abb   region population total
#>   <chr>      <chr> <chr>       <dbl> <dbl>
#> 1 Alabama    AL    South     4779736   135
#> 2 Alaska     AK    West       710231    19
#> 3 Arizona    AZ    West      6392017   232
#> 4 Arkansas   AR    South     2915918    93
#> 5 California CA    West     37253956  1257
#> # … with 1 more row
…
Ahora estamos listos para obtener los datos reales. Al examinar el objeto tab, notamos que la información está en las líneas 6 a 14. Podemos usar str_split de nuevo para lograr nuestro objetivo:

new_research_funding_rates <- tab[6:14] %>%
  str_trim %>%
  str_split("\\s{2,}", simplify = TRUE) %>%
  data.frame() %>%
  setNames(the_names) %>%
  mutate_at(-1, parse_number)
new_research_funding_rates %>% as_tibble()
#> # A tibble: 9 x 10
#>   discipline       applications_total applications_men applications_wom…
#>   <chr>                         <dbl>            <dbl>             <dbl>
#> 1 Chemical scienc…                122               83                39
#> 2 Physical scienc…                174              135                39
#> 3 Physics                          76               67                 9
#> 4 Humanities                      396              230               166
#> 5 Technical scien…                251              189                62
#> # … with 4 more rows, and 6 more variables: awards_total <dbl>,
#> #   awards_men <dbl>, awards_women <dbl>, success_rates_total <dbl>,
#> #   success_rates_men <dbl>, success_rates_women <dbl>
…
