Capítulo 4 El tidyverse | Introducción a la Ciencia de Datos
…
que ahora es numérico:

class(us_murder_rate)
#> [1] "numeric"

4.7.3 Agrupe y luego resuma con group_by

Una operación común en la exploración de datos es dividir primero los datos en grupos y luego calcular resúmenes para cada grupo. Por ejemplo, podemos querer calcular la desviación promedio y estándar para las alturas de hombres y mujeres por separado. los group_by la función nos ayuda a hacer esto.

Si escribimos esto:

heights %>% group_by(sex)
#> # A tibble: 1,050 x 2
#> # Groups:   sex [2]
#>   sex   height
#>   <fct>  <dbl>
#> 1 Male      75
#> 2 Male      70
#> 3 Male      68
#> 4 Male      74
#> 5 Male      61
#> # … with 1,045 more rows
…
4. Calcule el promedio y la desviación estándar para las mujeres, pero para cada grupo de edad por separado en lugar de una década seleccionada como en la pregunta 1. Tenga en cuenta que los grupos de edad se definen por AgeDecade. Sugerencia: en lugar de filtrar por edad y género, filtre por Gender y luego usar group_by.

5. Repita el ejercicio 4 para hombres.

6. De hecho, podemos combinar ambos resúmenes para los ejercicios 4 y 5 en una línea de código. Esto es porque group_by nos permite agrupar por más de una variable. Obtenga una gran tabla resumen usando group_by(AgeDecade, Gender).

7. Para los hombres entre las edades de 40-49, compare la presión arterial sistólica a través de la raza como se informa en el Race1 variable. Ordene la tabla resultante de la presión arterial sistólica promedio más baja a más alta.

4.10 Tibbles

Los datos ordenados deben almacenarse en marcos de datos. Introdujimos el marco de datos en la Sección 2.4.1 y he estado usando el murders marco de datos en todo el libro. En la sección 4.7.3 presentamos el group_by función, que permite estratificar datos antes de calcular estadísticas resumidas. Pero, ¿dónde se almacena la información del grupo en el marco de datos?

murders %>% group_by(region)
#> # A tibble: 51 x 6
#> # Groups:   region [4]
#>   state      abb   region population total  rate
#>   <chr>      <chr> <fct>       <dbl> <dbl> <dbl>
#> 1 Alabama    AL    South     4779736   135  2.82
#> 2 Alaska     AK    West       710231    19  2.68
#> 3 Arizona    AZ    West      6392017   232  3.63
#> 4 Arkansas   AR    South     2915918    93  3.19
#> 5 California CA    West     37253956  1257  3.37
#> # … with 46 more rows
…
